Introduction à R
…
library(readxl)
ouch <- read_excel("su-f-11.04.03-MZ-2015-A2_5586_Def2000.xls")

## New names:
## * `` -> ...2
## * `` -> ...3
## * `` -> ...4
## * `` -> ...5
## * `` -> ...6
## * ...

ouch

## # A tibble: 39 x 55
##    `Comportement d… ...2  ...3  ...4  ...5  ...6  ...7  ...8  ...9  ...10 ...11
##    <chr>            <chr> <chr> <chr> <chr> <chr> <chr> <chr> <chr> <chr> <chr>
##  1 Disponibilité d… <NA>  <NA>  <NA>  <NA>  <NA>  <NA>  <NA>  <NA>  <NA>  <NA> 
##  2 <NA>             Outi… <NA>  <NA>  <NA>  <NA>  <NA>  Taux… <NA>  Dist… <NA> 
##  3 <NA>             Disp… <NA>  Poss… <NA>  Poss… <NA>  Pers… <NA>  Total <NA> 
##  4 <NA>             [%]   +/-   [%]   +/-   [%]   +/-   [%]   +/-   [km]  +/-  
##  5 Total            71.4… 2.15… 79.8… 1.10… 54.3… 2.11… 90.4… 1.17… 35.5… 2.32…
##  6 Sexe             <NA>  <NA>  <NA>  <NA>  <NA>  <NA>  <NA>  <NA>  <NA>  <NA> 
##  7 Hommes           74.3… 2.97… 86.0… 1.36… 50.2… 3.12… 92.0… 1.58… 42.5… 3.87…
##  8 Femmes           68.3… 3.10… 74.2… 1.67… 58.0… 2.84… 88.9… 1.69… 29.1… 2.67…
##  9 Âge              <NA>  <NA>  <NA>  <NA>  <NA>  <NA>  <NA>  <NA>  <NA>  <NA> 
## 10 6-17 ans         <NA>  <NA>  <NA>  <NA>  94.6… 5.22… 93.5… 2.53… 21.0… 3.57…
## # … with 29 more rows, and 44 more variables: ...12 <chr>, ...13 <chr>,
## #   ...14 <chr>, ...15 <chr>, ...16 <chr>, ...17 <chr>, ...18 <chr>,
## #   ...19 <chr>, ...20 <chr>, ...21 <chr>, ...22 <chr>, ...23 <chr>,
## #   ...24 <chr>, ...25 <chr>, ...26 <chr>, ...27 <chr>, ...28 <chr>,
## #   ...29 <chr>, ...30 <chr>, ...31 <chr>, ...32 <chr>, ...33 <chr>,
## #   ...34 <chr>, ...35 <chr>, ...36 <chr>, ...37 <chr>, ...38 <chr>,
## #   ...39 <chr>, ...40 <chr>, ...41 <chr>, ...42 <chr>, ...43 <chr>,
## #   ...44 <chr>, ...45 <chr>, ...46 <chr>, ...47 <chr>, ...48 <chr>,
## #   ...49 <chr>, ...50 <chr>, ...51 <chr>, ...52 <chr>, ...53 <chr>,
…
